# image: python:3.8.10-slim-buster

# stages:
#   - build

# build_image:
#   stage: build
#   image: docker:24.0.5
#   services:
#     - docker:24.0.5-dind
#   script:
#     - VERSION=$(cat version.txt)

#     - echo $CI_REGISTRY_PASSWORD | docker login $CI_REGISTRY -u $CI_REGISTRY_USER --password-stdin

#     - if [ "$CI_COMMIT_BRANCH" == "main" ]; then
#         TAG="$VERSION";
#       else
#         TAG="testing_$VERSION.$CI_COMMIT_SHORT_SHA";
#       fi

#     # Build the Docker image with the determined tag
#     - docker build -t $CI_REGISTRY_IMAGE:$TAG .
    
#     # Push the Docker image with the determined tag
#     - docker push $CI_REGISTRY_IMAGE:$TAG

#     # Push the Docker image with the "latest" tag for the main branch
#     - if [ "$CI_COMMIT_BRANCH" == "main" ]; then
#         docker tag $CI_REGISTRY_IMAGE:$TAG $CI_REGISTRY_IMAGE:latest;
#         docker push $CI_REGISTRY_IMAGE:latest;
#       fi


